0	-0.2159	0.33
1	-0.3158	0.31
2	-0.2046	0.36
3	-0.2796	0.3
4	-0.1899	0.33
5	-0.1881	0.38
6	-0.1953	0.34
7	-0.1784	0.39
8	-0.2149	0.35
9	-0.2222	0.35
10	-0.2537	0.36
11	-0.3407	0.31
12	-0.2458	0.34
13	-0.2038	0.38
14	-0.261	0.4
15	-0.1786	0.38
16	-0.2107	0.37
17	-0.2395	0.36
18	-0.2326	0.35
19	-0.2097	0.4
20	-0.4012	0.25
21	-0.0814	0.42
22	-0.3347	0.31
23	-0.086	0.43
24	-0.215	0.36
25	-0.2525	0.37
26	-0.142	0.38
27	-0.2017	0.33
28	-0.2291	0.32
29	-0.2099	0.36
30	-0.1553	0.35
31	-0.1769	0.41
32	-0.2505	0.32
33	-0.1677	0.4
34	-0.2972	0.31
35	-0.219	0.37
36	-0.1795	0.39
37	-0.1875	0.38
38	-0.2944	0.31
39	-0.2754	0.28
40	-0.2873	0.27
41	-0.3394	0.32
42	-0.2588	0.3
43	-0.2391	0.34
44	-0.2853	0.32
45	-0.2469	0.38
46	-0.3161	0.3
47	-0.0957	0.47
48	-0.144	0.37
49	-0.1521	0.32
50	-0.358	0.28
51	-0.2426	0.36
52	-0.3284	0.3
53	-0.2038	0.39
54	-0.0593	0.41
55	-0.2055	0.33
56	-0.1746	0.39
57	-0.2056	0.4
58	-0.2172	0.3
59	-0.1373	0.38
60	-0.3236	0.38
61	-0.2863	0.33
62	-0.171	0.39
63	-0.1785	0.41
64	-0.148	0.39
65	-0.2409	0.34
66	-0.0996	0.44
67	-0.2647	0.33
68	-0.3403	0.26
69	-0.1383	0.43
70	-0.142	0.37
71	-0.3832	0.25
72	-0.2147	0.41
73	-0.2941	0.31
74	-0.1441	0.36
75	-0.189	0.39
76	-0.1409	0.34
77	-0.2423	0.34
78	-0.3084	0.37
79	-0.2203	0.33
80	-0.153	0.37
81	-0.1588	0.37
82	-0.1936	0.39
83	-0.2913	0.33
84	-0.2027	0.31
85	-0.2635	0.33
86	-0.1269	0.39
87	-0.1686	0.35
88	-0.2219	0.35
89	-0.1713	0.37
90	-0.1712	0.34
91	-0.3111	0.32
92	-0.1945	0.38
93	-0.2742	0.3
94	-0.1197	0.4
95	-0.1526	0.33
96	-0.2518	0.37
97	-0.264	0.3
98	-0.0967	0.42
99	-0.0638	0.47
